Assignment 2 feedback
…
```r
florida <- read_delim(file = "data/Florida-precip.csv", 
                      delim = ";",
                      locale = locale(decimal_mark = ","),
                      col_names = c("name", "station", "date", "precip"),
                      skip = 1, 
                      col_types = cols(date = col_date("%m.%Y"))) |> 
  drop_na(date)

florida
```

```
## # A tibble: 465 × 4
##   name             station date       precip
##   <chr>            <chr>   <date>      <dbl>
## 1 Bergen - Florida SN50540 1983-01-01  461  
## 2 Bergen - Florida SN50540 1983-02-01   45.3
## 3 Bergen - Florida SN50540 1983-03-01  249. 
## 4 Bergen - Florida SN50540 1983-04-01  104. 
## 5 Bergen - Florida SN50540 1983-05-01  143. 
## # … with 460 more rows
```
…
```r
florida <- read_delim(file = "data/Florida-precip.csv", 
                      delim = ";",
                      locale = locale(decimal_mark = ",")) |> 
  rename(Tid_norsk_normaltid="Tid(norsk normaltid)", Nedbor_mnd = "Nedbør (mnd)") |> 
  mutate(Tid_norsk_normaltid = my(Tid_norsk_normaltid)) |> 
  drop_na(Tid_norsk_normaltid)

florida
```

```
## # A tibble: 465 × 4
##   Navn             Stasjon Tid_norsk_normaltid Nedbor_mnd
##   <chr>            <chr>   <date>                   <dbl>
## 1 Bergen - Florida SN50540 1983-01-01               461  
## 2 Bergen - Florida SN50540 1983-02-01                45.3
## 3 Bergen - Florida SN50540 1983-03-01               249. 
## 4 Bergen - Florida SN50540 1983-04-01               104. 
## 5 Bergen - Florida SN50540 1983-05-01               143. 
## # … with 460 more rows
```
…
The maximum monthly precipitation is 586.3 mm.

---
# Extracting the month & year

```r
florida <- florida |> 
  mutate(
    month = month(Tid_norsk_normaltid, label = TRUE), 
    year = year(Tid_norsk_normaltid))
florida
```

```
## # A tibble: 465 × 6
##   Navn             Stasjon Tid_norsk_normaltid Nedbor_mnd month  year
##   <chr>            <chr>   <date>                   <dbl> <ord> <dbl>
## 1 Bergen - Florida SN50540 1983-01-01               461   Jan    1983
## 2 Bergen - Florida SN50540 1983-02-01                45.3 Feb    1983
## 3 Bergen - Florida SN50540 1983-03-01               249.  Mar    1983
## 4 Bergen - Florida SN50540 1983-04-01               104.  Apr    1983
## 5 Bergen - Florida SN50540 1983-05-01               143.  May    1983
## # … with 460 more rows
```
…
