Assignment 1 feedback
…
#mean height with 10 or more observations
biomass_mean_height <- biomass_long |>                     
  group_by(species) |> 
  filter(n() >= 10) |> 
  summarise(mean_height = mean(value)) |> 
  arrange(desc(mean_height))
```
---
# Result

```
## # A tibble: 27 × 2
##    species               mean_height
##    <chr>                       <dbl>
##  1 Kobresia cercostachys        6.12
##  2 Kobresia.sp1                 5.25
##  3 Deyeuxia pulchella           5.11
##  4 Kobresia.sp4                 4.38
##  5 Festuca forrestii            3.81
##  6 Kobresia pygmaea             3.76
##  7 Allium prattii               3.50
##  8 Aletris pauciflora           2.71
##  9 Astragalus skythropos        2.19
## 10 Galearis spathulata          2.13
## # … with 17 more rows
```
…
## Warning in H1:H10: numerical expression has 3 elements: only the
## first used
```

```
## Warning in H1:H10: numerical expression has 5 elements: only the
## first used

## Warning in H1:H10: numerical expression has 5 elements: only the
## first used
```

```
## # A tibble: 23 × 2
##    species                 mean_value
##    <chr>                        <dbl>
##  1 "Allium prattii"               4.9
##  2 "Androsace minor "             0.8
##  3 "Aster asteroides"             1.3
##  4 "Cyananthus incanus"           1.8
##  5 "Deyeuxia pulchella"           3.9
##  6 "Festuca forrestii"            4  
##  7 "Galearis spathulata"          2.9
##  8 "Gentiana crassula"            1.5
##  9 "Kobresia cercostachys"        6  
## 10 "Kobresia pygmaea"             5.2
## # … with 13 more rows
```
…
`n()`
or `add_count()` AFTER `group_by()`

```r
# with mutate
biomass_long |> 
  group_by(species) |>  
  mutate(n = n()) |>  
  filter(n< 10)
```

```
## # A tibble: 28 × 20
## # Groups:   species [9]
##    site  plot  size      记录名称 中名  species cover production
##    <chr> <chr> <chr>     <chr>    <lgl> <chr>   <dbl> <chr>     
##  1 H     I-2   50cm*50cm 报春     NA    Primul…   0.9 "0.0318 " 
##  2 H     I-2   50cm*50cm 报春     NA    Primul…   0.9 "0.0318 " 
##  3 H     I-4   50cm*50cm 草莓     NA    Fragar…   0.8  <NA>     
##  4 H     I-4   50cm*50cm 草莓     NA    Fragar…   0.8  <NA>     
##  5 H     I-3   50cm*50cm 抽葶藁本 NA    Ligust…   1.2 "0.4523 " 
##  6 H     I-3   50cm*50cm 抽葶藁本 NA    Ligust…   1.2 "0.4523 " 
##  7 H     I-5   50cm*50cm 抽葶藁本 NA    Ligust…   1.2 "0.2078 " 
##  8 H     I-12  50cm*50cm 抽葶藁本 NA    Ligust…   1.1 "0.1996 " 
##  9 H     I-1   50cm*50cm 灯芯草   NA    Juncus…   0.2 "0.0202 " 
## 10 H     I-1   50cm*50cm 灯芯草   NA    Juncus…   0.2 "0.0202 " 
## # … with 18 more rows, and 12 more variables:
## #   investigator <chr>, recorder <chr>, time <chr>,
## #   Total cover(%) <dbl>, AH1 <dbl>, AH2 <dbl>, AH3 <dbl>,
## #   AH4 <dbl>, AH5 <dbl>, height <chr>, value <dbl>, n <int>
```

```r
# one step
biomass_long |> 
  group_by(species) |>  
  filter(n() < 10)
```

```
## # A tibble: 28 × 19
## # Groups:   species [9]
##    site  plot  size      记录名称 中名  species cover production
##    <chr> <chr> <chr>     <chr>    <lgl> <chr>   <dbl> <chr>     
##  1 H     I-2   50cm*50cm 报春     NA    Primul…   0.9 "0.0318 " 
##  2 H     I-2   50cm*50cm 报春     NA    Primul…   0.9 "0.0318 " 
##  3 H     I-4   50cm*50cm 草莓     NA    Fragar…   0.8  <NA>     
##  4 H     I-4   50cm*50cm 草莓     NA    Fragar…   0.8  <NA>     
##  5 H     I-3   50cm*50cm 抽葶藁本 NA    Ligust…   1.2 "0.4523 " 
##  6 H     I-3   50cm*50cm 抽葶藁本 NA    Ligust…   1.2 "0.4523 " 
##  7 H     I-5   50cm*50cm 抽葶藁本 NA    Ligust…   1.2 "0.2078 " 
##  8 H     I-12  50cm*50cm 抽葶藁本 NA    Ligust…   1.1 "0.1996 " 
##  9 H     I-1   50cm*50cm 灯芯草   NA    Juncus…   0.2 "0.0202 " 
## 10 H     I-1   50cm*50cm 灯芯草   NA    Juncus…   0.2 "0.0202 " 
## # … with 18 more rows, and 11 more variables:
## #   investigator <chr>, recorder <chr>, time <chr>,
## #   Total cover(%) <dbl>, AH1 <dbl>, AH2 <dbl>, AH3 <dbl>,
## #   AH4 <dbl>, AH5 <dbl>, height <chr>, value <dbl>
```
…
```
## # A tibble: 27 × 2
##    species                 `mean(value, na.rm = TRUE)`
##    <chr>                                         <dbl>
##  1 "Aletris pauciflora"                          2.71 
##  2 "Allium prattii"                              3.50 
##  3 "Androsace minor "                            0.960
##  4 "Anemone demissa"                             1.96 
##  5 "Aster asteroides"                            1.21 
##  6 "Astragalus skythropos"                       2.19 
##  7 "Cyananthus incanus"                          1.28 
##  8 "Deyeuxia pulchella"                          5.11 
##  9 "Festuca forrestii"                           3.81 
## 10 "Galearis spathulata"                         2.13 
## # … with 17 more rows
```
…
