Generalised Linear Models
…
---
# Predictions

```r
preds_swap <- augment(mod_swap, type.predict = "link", se_fit = TRUE) |> 
  mutate(
    fitted = plogis(.fitted), 
    lower = plogis(.fitted + .se.fit * 1.96),
    upper = plogis(.fitted - .se.fit * 1.96),
  )
preds_swap
```

```
## # A tibble: 167 × 13
##    .rownames TA003A    pH .fitted .se.fit .resid .std.resid    .hat .sigma
##    <chr>      <dbl> <dbl>   <dbl>   <dbl>  <dbl>      <dbl>   <dbl>  <dbl>
##  1 1.21           1  4.49   1.71    0.369  0.577      0.582 0.0177   0.937
##  2 10.21          0  5.26  -0.389   0.210 -1.02      -1.02  0.0106   0.934
##  3 11             1  4.9    0.599   0.238  0.936      0.942 0.0130   0.935
##  4 113.21         0  6.43  -3.56    0.608 -0.237     -0.239 0.00999  0.938
##  5 115.11         0  5.68  -1.52    0.310 -0.628     -0.633 0.0142   0.937
##  6 12.11          1  5.24  -0.335   0.208  1.32       1.33  0.0105   0.932
##  7 121            1  4.8    0.870   0.264  0.837      0.843 0.0145   0.936
##  8 15.11          1  5.41  -0.777   0.232  1.52       1.53  0.0116   0.930
##  9 17.21          0  4.91   0.566   0.235 -1.43      -1.43  0.0128   0.931
## 10 18.11          0  5.44  -0.869   0.240 -0.837     -0.842 0.0119   0.936
## # … with 157 more rows, and 4 more variables: .cooksd <dbl>, fitted <dbl>,
## #   lower <dbl>, upper <dbl>
```
…
