Data manipulation
…
 - With penguins data
 - Drop rows with NA sex
 - find mean bill length per species per sex

First solution

```r
summarise(
  group_by(drop_na(penguins, sex), species, sex), 
  bill_length_mean = mean(bill_length_mm),
  .groups = "drop")
```

```
## # A tibble: 6 × 3
##   species sex    bill_length_mean
##   <fct>   <fct>             <dbl>
## 1 Adelie  female             37.3
## 2 Adelie  male               40.4
## # … with 4 more rows
```
…
---
# pivot_longer()

```r
mites_long <- mites |> 
  pivot_longer(cols = Brachy:RARD, 
               names_to = "taxon", 
               values_to = "count")
mites_long
```

```
## # A tibble: 20 × 3
##    sample taxon  count
##     <int> <chr>  <int>
##  1      1 Brachy    17
##  2      1 PHTH       5
##  3      1 HPAV       5
##  4      1 RARD       3
##  5      2 Brachy     2
##  6      2 PHTH       7
##  7      2 HPAV      16
##  8      2 RARD       0
##  9      3 Brachy     4
## 10      3 PHTH       3
## # … with 10 more rows
```
…
---
# Selecting columns  
`dplyr::select()`

```r
penguins |> 
  select(species, bill_length_mm)
```

```
## # A tibble: 344 × 2
##   species bill_length_mm
##   <fct>            <dbl>
## 1 Adelie            39.1
## 2 Adelie            39.5
## # … with 342 more rows
```

```r
penguins |> 
  select(-bill_length_mm, -bill_depth_mm)
```

```
## # A tibble: 344 × 6
##   species island    flipper_length_mm body_mass_g sex     year
##   <fct>   <fct>                 <int>       <int> <fct>  <int>
## 1 Adelie  Torgersen               181        3750 male    2007
## 2 Adelie  Torgersen               186        3800 female  2007
## # … with 342 more rows
```

---
# Selecting adjacent columns

```r
penguins |> 
  select(bill_length_mm:body_mass_g)
```

```
## # A tibble: 344 × 4
##   bill_length_mm bill_depth_mm flipper_length_mm body_mass_g
##            <dbl>         <dbl>             <int>       <int>
## 1           39.1          18.7               181        3750
## 2           39.5          17.4               186        3800
## # … with 342 more rows
```

```r
penguins |> 
  select(-(bill_length_mm:body_mass_g))
```

```
## # A tibble: 344 × 4
##   species island    sex     year
##   <fct>   <fct>     <fct>  <int>
## 1 Adelie  Torgersen male    2007
## 2 Adelie  Torgersen female  2007
## # … with 342 more rows
```

---
# Select helpers

`ends_with()`

```r
penguins |> 
  select(species, ends_with("mm"))
```

```
## # A tibble: 344 × 4
##   species bill_length_mm bill_depth_mm flipper_length_mm
##   <fct>            <dbl>         <dbl>             <int>
## 1 Adelie            39.1          18.7               181
## 2 Adelie            39.5          17.4               186
## # … with 342 more rows
```
- `starts_with()`
- `contains()`
- `matches()` regular expressions

---
# Filtering rows 
`dplyr::filter()`

```r
penguins |> filter(species == "Gentoo")
```

```
## # A tibble: 124 × 8
##   species island bill_length_mm bill_depth_mm flipper_length_… body_mass_g sex  
##   <fct>   <fct>           <dbl>         <dbl>            <int>       <int> <fct>
## 1 Gentoo  Biscoe           46.1          13.2              211        4500 fema…
## 2 Gentoo  Biscoe           50            16.3              230        5700 male 
## # … with 122 more rows, and 1 more variable: year <int>
```
…
---
# `%in%`

Problem

```r
penguins |> 
  filter(species == "Gentoo" | species == "Chinstrap")
```

```
## # A tibble: 192 × 8
##   species island bill_length_mm bill_depth_mm flipper_length_… body_mass_g sex  
##   <fct>   <fct>           <dbl>         <dbl>            <int>       <int> <fct>
## 1 Gentoo  Biscoe           46.1          13.2              211        4500 fema…
## 2 Gentoo  Biscoe           50            16.3              230        5700 male 
## # … with 190 more rows, and 1 more variable: year <int>
```

- `|` OR

Solution

```r
penguins |> 
  filter(species %in% c("Gentoo", "Chinstrap"))
```

```
## # A tibble: 192 × 8
##   species island bill_length_mm bill_depth_mm flipper_length_… body_mass_g sex  
##   <fct>   <fct>           <dbl>         <dbl>            <int>       <int> <fct>
## 1 Gentoo  Biscoe           46.1          13.2              211        4500 fema…
## 2 Gentoo  Biscoe           50            16.3              230        5700 male 
## # … with 190 more rows, and 1 more variable: year <int>
```

---
# `between()`

Problem

```r
penguins |> 
  filter(body_mass_g >= 2000, body_mass_g <= 3000)
```

```
## # A tibble: 11 × 8
##   species island bill_length_mm bill_depth_mm flipper_length_… body_mass_g sex  
##   <fct>   <fct>           <dbl>         <dbl>            <int>       <int> <fct>
## 1 Adelie  Dream            37            16.9              185        3000 fema…
## 2 Adelie  Dream            37.5          18.9              179        2975 <NA> 
## # … with 9 more rows, and 1 more variable: year <int>
```

Solution

```r
penguins |> 
  filter(between(body_mass_g, left = 2000, right = 3000))
```

```
## # A tibble: 11 × 8
##   species island bill_length_mm bill_depth_mm flipper_length_… body_mass_g sex  
##   <fct>   <fct>           <dbl>         <dbl>            <int>       <int> <fct>
## 1 Adelie  Dream            37            16.9              185        3000 fema…
## 2 Adelie  Dream            37.5          18.9              179        2975 <NA> 
## # … with 9 more rows, and 1 more variable: year <int>
```
…
Problem

Want to filter by partial text match

solution: `stringr` package

```r
penguins |> 
  filter(str_detect(species, "G"))
```

```
## # A tibble: 124 × 8
##   species island bill_length_mm bill_depth_mm flipper_length_… body_mass_g sex  
##   <fct>   <fct>           <dbl>         <dbl>            <int>       <int> <fct>
## 1 Gentoo  Biscoe           46.1          13.2              211        4500 fema…
## 2 Gentoo  Biscoe           50            16.3              230        5700 male 
## # … with 122 more rows, and 1 more variable: year <int>
```
…
---
# Mutating columns with mutate()

Make a new column or change an existing column

```r
penguins |> mutate(
  species = tolower(species),
  body_mass_kg = body_mass_g/1000,
  bill_ratio = bill_length_mm/bill_depth_mm
  )
```

```
## # A tibble: 344 × 10
##   species island bill_length_mm bill_depth_mm flipper_length_… body_mass_g sex  
##   <chr>   <fct>           <dbl>         <dbl>            <int>       <int> <fct>
## 1 adelie  Torge…           39.1          18.7              181        3750 male 
## 2 adelie  Torge…           39.5          17.4              186        3800 fema…
## # … with 342 more rows, and 3 more variables: year <int>, body_mass_kg <dbl>,
## #   bill_ratio <dbl>
```
…
- limits `min()` `max()`
- centre `mean()` `median()`
- spread `sd()`
- number `n()` `n_distinct()`

---
# Grouping data

```r
penguins |> 
  group_by(species, island)
```

```
## # A tibble: 344 × 8
## # Groups:   species, island [5]
##   species island bill_length_mm bill_depth_mm flipper_length_… body_mass_g sex  
##   <fct>   <fct>           <dbl>         <dbl>            <int>       <int> <fct>
## 1 Adelie  Torge…           39.1          18.7              181        3750 male 
## 2 Adelie  Torge…           39.5          17.4              186        3800 fema…
## # … with 342 more rows, and 1 more variable: year <int>
```
…
---
# Mutating grouped data

Analysis per group

```r
penguins |> 
  group_by(species) |> 
  mutate(bill_length_mean = mean(bill_length_mm, na.rm = TRUE),
         bill_length_centred = bill_length_mm - bill_length_mean)
```

```
## # A tibble: 344 × 10
## # Groups:   species [3]
##   species island bill_length_mm bill_depth_mm flipper_length_… body_mass_g sex  
##   <fct>   <fct>           <dbl>         <dbl>            <int>       <int> <fct>
## 1 Adelie  Torge…           39.1          18.7              181        3750 male 
## 2 Adelie  Torge…           39.5          17.4              186        3800 fema…
## # … with 342 more rows, and 3 more variables: year <int>,
## #   bill_length_mean <dbl>, bill_length_centred <dbl>
```
…
---
# Counting rows

```r
penguins |> 
  count(species, island, sex)
```

```
## # A tibble: 13 × 4
##   species island sex        n
##   <fct>   <fct>  <fct>  <int>
## 1 Adelie  Biscoe female    22
## 2 Adelie  Biscoe male      22
## # … with 11 more rows
```

```r
penguins |> 
  group_by(species, island, sex) |> 
  summarise(n = n(), .groups = "drop")
```

```
## # A tibble: 13 × 4
##   species island sex        n
##   <fct>   <fct>  <fct>  <int>
## 1 Adelie  Biscoe female    22
## 2 Adelie  Biscoe male      22
## # … with 11 more rows
```
…
